<svg
    xmlns="http://www.w3.org/2000/svg"
    viewBox="0 0 154 143"
    id="vector">
    <path
        id="path"
        d="M 106.331 34.237 C 106.359 34.051 106.373 33.88 106.402 33.681 C 106.402 33.681 107.911 33.938 109.719 34.507 C 108.637 34.094 107.47 33.724 106.203 33.396 C 106.16 33.71 106.217 33.995 106.331 34.237 Z"
        fill="#ae1f23"/>
    <path
        id="path_1"
        d="M 118.248 51.583 L 118.974 50.643 C 118.903 50.515 118.818 50.401 118.746 50.273 L 118.746 50.258 L 118.348 49.062 C 118.348 49.062 118.348 49.062 118.348 49.048 C 118.362 50.016 118.333 50.842 118.248 51.583 Z"
        fill="#ae1f23"/>
    <path
        id="path_2"
        d="M 115.529 37.512 C 115.343 37.384 115.144 37.256 114.945 37.128 C 115.073 37.256 115.201 37.37 115.301 37.498 C 115.372 37.498 115.457 37.498 115.529 37.512 Z"
        fill="#ae1f23"/>
    <path
        id="path_3"
        d="M 102.202 53.733 L 99.311 53.733 L 99.311 50.913 L 97.19 50.913 L 97.19 58.419 L 99.311 58.419 L 99.311 55.499 L 102.202 55.499 L 102.202 58.419 L 104.323 58.419 L 104.323 50.913 L 102.202 50.913 L 102.202 53.733 Z"
        fill="#ae1f23"/>
    <path
        id="path_4"
        d="M 80.232 63.147 C 81.286 63.902 82.411 64.557 83.507 65.255 C 83.706 65.383 83.934 65.468 84.076 65.54 C 84.689 66.223 86.084 67.704 87.323 68.601 C 87.536 66.992 87.921 65.696 88.092 64.4 C 88.22 63.361 88.206 62.307 87.907 61.167 C 87.864 61.025 87.835 60.897 87.778 60.754 C 87.764 60.712 87.75 60.669 87.736 60.612 C 87.665 60.413 87.593 60.213 87.508 60.014 C 86.44 57.522 82.282 56.525 82.268 50.557 C 82.268 50.287 81.955 50.102 81.87 49.974 C 79.52 54.616 77.883 56.51 73.498 56.339 C 73.768 56.838 74.067 57.336 74.366 57.806 C 75.861 60.099 78.082 61.595 80.232 63.147 Z"
        fill="#ae1f23"/>
    <path
        id="path_5"
        d="M 109.278 54.018 C 109.093 51.526 107.826 49.333 105.961 47.894 C 103.383 46.057 99.81 45.715 96.933 47.04 C 94.841 48.094 93.232 49.988 92.562 52.266 C 92.52 52.423 92.477 52.594 92.434 52.751 C 92.434 52.765 92.434 52.779 92.42 52.793 C 92.349 53.121 92.292 53.448 92.249 53.79 C 92.207 54.317 92.207 54.816 92.235 55.3 C 92.42 57.792 93.687 59.999 95.552 61.438 C 98.129 63.275 101.703 63.617 104.579 62.292 C 106.672 61.239 108.281 59.344 108.951 57.066 C 108.993 56.909 109.036 56.752 109.064 56.581 C 109.064 56.567 109.064 56.553 109.079 56.539 C 109.15 56.225 109.207 55.898 109.25 55.556 L 109.25 55.542 C 109.306 55.015 109.306 54.517 109.278 54.018 Z M 99.966 62.406 C 96.335 62.036 93.388 59.102 93.032 55.471 C 92.548 50.557 96.649 46.456 101.561 46.94 C 105.192 47.31 108.139 50.244 108.495 53.876 C 108.979 58.789 104.864 62.891 99.966 62.406 Z"
        fill="#ae1f23"/>
    <path
        id="path_6"
        d="M 3.602 85.321 C -0.769 90.419 -0.299 88.041 0.598 95.418 C 0.242 91.487 2.762 86.773 3.602 85.321 Z"
        fill="#771213"
        fill-opacity="0.57"
        stroke-opacity="0.57"
        stroke-width="1"/>
    <path
        id="path_7"
        d="M 95.552 31.944 C 96.193 32.029 96.962 32.086 97.774 32.143 C 97.774 32.115 97.759 32.1 97.759 32.072 C 97.033 32.015 96.307 31.972 95.552 31.944 Z"
        fill="#ae1f23"/>
    <path
        id="path_8"
        d="M 77.242 65.055 C 76.929 64.087 76.63 63.104 76.174 62.193 C 76.573 63.175 76.9 64.144 77.242 65.055 Z"
        fill="#ae1f23"/>
    <path
        id="path_9"
        d="M 86.853 78.442 C 82.994 79.012 80.46 74.725 78.054 73.201 C 72.814 69.997 67.361 66.494 64.812 60.626 C 62.748 57.051 67.688 53.505 69.411 50.671 C 71.533 47.239 75.462 45.715 77.142 42.055 C 77.897 40.432 79.478 38.908 81.115 38.053 C 82.225 37.996 83.35 37.911 84.475 37.882 C 84.561 37.797 84.632 37.712 84.717 37.626 C 84.731 37.626 84.731 37.626 84.746 37.612 L 85.97 36.886 C 85.984 36.886 85.984 36.871 85.984 36.871 C 86.226 36.857 86.454 36.843 86.696 36.828 C 89.373 34.65 94.912 33.695 94.912 33.695 C 94.912 33.752 94.926 33.809 94.926 33.866 C 94.983 33.852 95.026 33.838 95.083 33.824 C 95.211 33.638 95.367 33.468 95.382 33.211 C 95.382 33.211 95.866 32.471 95.666 32.086 C 95.666 32.115 95.609 32.058 95.538 31.958 C 95.524 31.944 95.524 31.93 95.51 31.915 C 94.769 31.915 94.015 31.93 93.232 31.958 C 93.232 31.958 78.068 39.107 71.205 38.481 C 64.342 37.854 66.321 49.09 57.522 53.463 C 49.05 57.678 44.366 67.191 13.469 75.936 C 11.163 76.591 9.141 78.001 7.746 79.952 C 6.023 82.373 4.656 84.082 3.574 85.335 C 2.762 86.773 0.242 91.487 0.598 95.418 C 0.612 95.575 0.641 95.746 0.655 95.917 C 0.655 95.917 14.423 85.848 22.81 87.671 C 22.81 87.671 31.324 80.436 37.432 78.528 C 37.432 78.528 24.96 85.506 24.49 88.24 C 24.49 88.24 24.091 87.984 23.109 87.742 C 23.934 87.956 24.703 88.283 25.401 88.753 C 33.118 94.037 31.879 104.034 43.113 105.287 C 54.347 106.541 66.692 98.452 71.689 101.57 C 74.409 103.265 79.705 98.708 83.948 94.193 C 84.319 91.587 84.717 88.967 85.13 86.361 C 85.657 83.712 86.668 81.533 86.853 78.442 Z"
        fill="#ae1f23"/>
    <path
        id="path_10"
        d="M 79.079 68.487 C 79.549 69.071 80.132 69.612 80.83 70.054 C 80.46 69.726 79.947 69.228 79.392 68.772 C 79.292 68.687 79.193 68.587 79.079 68.487 Z"
        fill="#ae1f23"/>
    <path
        id="path_11"
        d="M 87.323 68.644 C 87.323 68.63 87.323 68.601 87.337 68.587 C 87.323 68.615 87.323 68.63 87.323 68.644 Z"
        fill="#ae1f23"/>
    <path
        id="path_12"
        d="M 71.789 56.624 C 72.23 57.037 72.657 57.465 73.07 57.906 C 74.309 59.23 75.391 60.655 76.174 62.193 C 76.63 63.104 76.929 64.087 77.242 65.055 C 77.726 66.323 78.267 67.49 79.079 68.487 C 79.178 68.587 79.292 68.687 79.406 68.787 C 79.962 69.242 80.474 69.726 80.844 70.068 C 81.015 70.182 81.2 70.282 81.385 70.382 C 81.385 70.382 83.891 71.435 87.195 71.578 C 87.123 70.524 87.195 69.57 87.323 68.658 C 87.323 68.644 87.323 68.616 87.337 68.601 C 86.084 67.704 84.703 66.223 84.091 65.539 C 83.948 65.468 83.72 65.383 83.521 65.255 C 82.425 64.557 81.3 63.902 80.246 63.147 C 78.096 61.594 75.875 60.099 74.394 57.821 C 74.081 57.336 73.796 56.852 73.526 56.354 C 72.971 56.325 72.373 56.282 71.718 56.197 C 71.746 56.439 71.732 56.567 71.789 56.624 Z"
        fill="#ae1f23"/>
    <path
        id="path_13"
        d="M 71.789 56.624 C 72.23 57.037 72.657 57.465 73.07 57.906 C 74.309 59.23 75.391 60.655 76.174 62.193 C 76.63 63.104 76.929 64.087 77.242 65.055 C 77.726 66.323 78.267 67.49 79.079 68.487 C 79.178 68.587 79.292 68.687 79.406 68.787 C 79.962 69.242 80.474 69.726 80.844 70.068 C 81.015 70.182 81.2 70.282 81.385 70.382 C 81.385 70.382 83.891 71.435 87.195 71.578 C 87.123 70.524 87.195 69.57 87.323 68.658 C 87.323 68.644 87.323 68.616 87.337 68.601 C 86.084 67.704 84.703 66.223 84.091 65.539 C 83.948 65.468 83.72 65.383 83.521 65.255 C 82.425 64.557 81.3 63.902 80.246 63.147 C 78.096 61.594 75.875 60.099 74.394 57.821 C 74.081 57.336 73.796 56.852 73.526 56.354 C 72.971 56.325 72.373 56.282 71.718 56.197 C 71.746 56.439 71.732 56.567 71.789 56.624 Z"
        fill="#ae1f23"/>
    <path
        id="path_14"
        d="M 22.824 87.671 C 22.938 87.699 23.023 87.713 23.123 87.742 C 23.023 87.713 22.924 87.685 22.824 87.671 Z"
        fill="#771213"
        fill-opacity="0.47"
        stroke-opacity="0.47"
        stroke-width="1"/>
    <path
        id="path_15"
        d="M 37.447 78.513 C 31.338 80.436 22.824 87.656 22.824 87.656 C 22.924 87.685 23.023 87.699 23.123 87.728 C 24.105 87.97 24.504 88.226 24.504 88.226 C 24.974 85.492 37.447 78.513 37.447 78.513 Z"
        fill="#ae1f23"/>
    <path
        id="path_16"
        d="M 37.447 78.513 C 31.338 80.436 22.824 87.656 22.824 87.656 C 22.924 87.685 23.023 87.699 23.123 87.728 C 24.105 87.97 24.504 88.226 24.504 88.226 C 24.974 85.492 37.447 78.513 37.447 78.513 Z"
        fill="#771213"
        fill-opacity="0.47"
        stroke-opacity="0.47"
        stroke-width="1"/>
    <path
        id="path_17"
        d="M 97.731 32.043 C 97.731 32.058 97.731 32.058 97.745 32.072 C 98.5 32.129 99.254 32.186 99.966 32.271 C 101.931 32.399 103.896 32.599 105.12 33.14 C 105.491 33.225 105.847 33.311 106.203 33.411 C 106.231 33.225 106.288 33.04 106.402 32.827 C 106.402 32.827 106.16 32.442 106.288 32.228 C 106.43 32.143 106.516 32.001 106.502 31.83 C 106.914 30.989 107.256 30.035 107.512 29.024 C 107.598 29.053 107.698 29.081 107.783 29.081 C 108.623 29.081 109.306 27.614 109.306 25.806 C 109.306 24.04 108.652 22.601 107.826 22.544 C 107.726 21.846 107.598 21.163 107.413 20.522 C 107.456 20.38 107.512 20.237 107.555 20.095 C 107.641 20.009 107.698 19.91 107.698 19.781 C 107.698 19.596 107.584 19.44 107.413 19.383 C 107.413 19.198 107.413 19.027 107.413 18.841 C 107.399 18.044 107.655 17.019 107.256 16.506 C 106.231 15.181 104.921 14.071 103.697 12.889 C 103.554 12.746 103.255 12.732 103.027 12.689 C 100.593 12.362 98.272 12.874 96.165 14.056 C 94.613 14.939 93.773 16.392 93.687 18.3 C 93.63 19.796 93.403 21.291 93.232 22.786 C 92.676 23.285 92.292 24.438 92.292 25.806 C 92.292 27.614 92.975 29.081 93.815 29.081 C 94.043 29.081 94.271 28.967 94.456 28.768 C 94.584 29.337 94.741 29.879 94.926 30.391 C 94.94 30.605 94.969 30.819 94.983 31.032 C 94.983 31.032 95.296 31.602 95.496 31.901 C 96.222 31.901 96.919 31.915 97.603 31.944 C 97.688 32.015 97.731 32.072 97.731 32.043 Z"
        fill="#333333"/>
    <path
        id="path_18"
        d="M 97.745 32.058 C 97.745 32.043 97.745 32.043 97.731 32.029 C 97.731 32.058 97.688 32.001 97.617 31.915 C 96.933 31.887 96.236 31.872 95.51 31.872 C 95.524 31.887 95.524 31.901 95.538 31.915 C 96.307 31.972 97.033 32.015 97.745 32.058 Z"
        fill="#333333"/>
    <path
        id="path_19"
        d="M 122.448 73.102 C 127.901 68.73 137.583 65.725 136.814 57.222 C 136.088 55.713 135.077 54.388 133.582 53.463 C 129.482 50.472 130.678 47.894 125.082 44.633 C 123.544 39.748 120.255 37.925 115.301 37.498 C 115.543 37.783 115.742 38.096 115.87 38.409 C 116.041 38.837 116.012 39.25 115.842 39.648 C 115.842 39.663 115.827 39.677 115.827 39.691 C 115.799 39.748 115.77 39.805 115.742 39.862 C 115.087 41.115 112.994 42.041 110.517 42.411 C 108.424 42.753 106.046 42.682 104.01 42.013 C 103.981 41.998 103.938 41.998 103.91 41.984 C 103.853 41.97 103.796 41.941 103.739 41.927 C 103.412 41.813 103.113 41.685 102.814 41.542 C 102.515 41.443 102.33 41.272 102.33 41.272 C 102.714 41.471 103.07 41.599 103.426 41.571 C 103.953 41.457 104.593 40.944 105.177 39.477 C 105.59 38.338 105.975 36.672 106.331 34.251 C 106.16 33.781 105.733 33.411 105.12 33.14 C 103.54 32.77 101.831 32.485 99.966 32.271 C 99.226 32.228 98.471 32.186 97.773 32.143 C 97.83 32.471 97.517 32.955 97.517 32.955 L 97.432 33.225 C 97.403 33.325 97.332 33.396 97.247 33.439 C 97.218 33.496 97.19 33.553 97.161 33.61 C 97.147 33.525 97.133 33.439 97.133 33.339 C 97.133 33.339 96.264 33.496 95.111 33.809 C 95.068 33.881 95.011 33.938 94.983 34.023 C 95.339 36.515 95.723 38.239 96.136 39.392 C 96.72 40.916 97.375 41.429 97.901 41.557 C 98.257 41.585 98.613 41.471 98.998 41.258 C 98.998 41.258 98.813 41.429 98.514 41.514 C 98.058 41.742 97.56 41.927 97.047 42.084 C 96.99 42.098 96.933 42.126 96.876 42.141 C 96.862 42.141 96.848 42.155 96.834 42.155 C 94.883 42.696 92.69 42.724 90.74 42.397 C 90.711 42.397 90.697 42.383 90.668 42.383 C 90.597 42.368 90.526 42.354 90.441 42.34 C 88.134 41.927 86.198 41.016 85.585 39.834 C 85.329 39.378 85.272 38.894 85.472 38.395 C 85.543 38.21 85.642 38.039 85.742 37.868 C 85.329 37.854 84.916 37.868 84.503 37.868 C 83.848 38.566 83.151 39.25 82.795 40.09 C 82.154 41.628 81.086 42.582 79.791 43.55 C 78.538 44.49 77.569 45.829 76.544 47.054 C 75.562 48.236 74.679 49.504 73.739 50.714 C 72.999 51.668 72.316 52.651 72.387 53.933 C 72.415 54.331 72.629 54.73 72.828 55.1 C 73.056 55.513 73.284 55.941 73.511 56.354 C 77.897 56.525 79.534 54.63 81.884 49.988 C 81.969 50.102 82.282 50.301 82.282 50.572 C 82.282 56.539 86.454 57.522 87.522 60.028 C 87.607 60.227 87.678 60.427 87.75 60.626 C 87.764 60.669 87.778 60.712 87.792 60.769 C 87.835 60.911 87.878 61.053 87.921 61.181 C 88.248 62.364 88.248 63.389 88.106 64.414 C 87.949 65.782 87.565 67.135 87.337 68.616 C 87.422 68.673 87.493 68.744 87.579 68.787 C 88.462 69.385 89.658 69.513 90.612 69.499 C 90.483 70.823 90.284 72.076 89.985 72.931 C 89.7 74.013 89.373 74.939 89.216 75.879 C 88.704 79.055 88.248 82.245 87.807 85.435 C 87.137 90.291 90.355 86.603 90.341 86.674 C 90.341 86.674 87.508 90.419 83.948 94.193 C 83.749 95.532 83.564 96.871 83.379 98.21 C 83.094 99.876 82.966 101.585 82.951 103.294 C 87.422 104.789 92.163 105.672 97.09 105.871 C 97.887 101.927 98.556 97.953 99.041 93.994 C 99.895 93.951 100.749 93.923 101.589 93.909 C 102.045 97.825 102.842 101.784 103.725 105.715 C 108.48 105.288 113.051 104.205 117.337 102.553 C 117.123 94.279 116.084 86.09 113.578 77.531 C 117.337 78.186 120.127 75.936 122.448 73.102 Z M 109.249 55.542 C 109.249 55.556 109.249 55.556 109.249 55.542 C 109.207 55.884 109.15 56.211 109.078 56.539 C 109.078 56.553 109.078 56.567 109.064 56.581 C 109.022 56.738 108.993 56.909 108.95 57.066 C 108.238 59.658 106.587 61.381 104.579 62.292 C 103.668 62.748 102.671 63.061 101.618 63.161 C 99.325 63.389 97.204 62.705 95.552 61.438 C 93.716 60.128 92.406 58.063 92.235 55.3 C 92.192 54.801 92.206 54.303 92.249 53.79 C 92.277 53.448 92.349 53.121 92.42 52.793 C 92.42 52.779 92.42 52.765 92.434 52.751 C 92.477 52.594 92.505 52.423 92.562 52.266 C 93.288 49.674 94.926 47.951 96.933 47.04 C 97.845 46.584 98.841 46.271 99.895 46.171 C 102.187 45.943 104.309 46.627 105.96 47.894 C 107.797 49.204 109.107 51.269 109.278 54.018 C 109.306 54.517 109.306 55.029 109.249 55.542 Z M 112.168 70.624 C 112.083 69.499 112.14 68.359 112.239 67.234 C 112.296 65.81 112.41 64.372 112.624 62.962 C 112.723 61.851 112.894 60.697 113.222 60.028 C 113.592 59.287 114.048 58.86 114.589 58.362 C 115.258 57.635 115.927 56.995 116.511 56.225 C 116.824 55.77 117.166 55.214 117.507 54.545 C 117.792 53.89 118.02 53.135 118.177 52.224 C 118.191 52.053 118.205 51.868 118.205 51.682 C 118.276 50.401 118.305 48.948 118.348 49.09 L 118.348 49.105 C 118.661 50.073 119.173 50.999 119.8 51.868 C 120.668 52.993 121.693 54.004 122.804 54.816 C 123.06 55.001 123.345 55.257 123.644 55.528 C 124.228 55.926 124.826 56.268 125.41 56.567 C 126.292 56.639 128.67 56.396 129.88 56.311 C 129.98 56.297 130.08 56.297 130.165 56.297 C 130.464 56.282 130.635 56.282 130.592 56.325 L 129.795 57.051 C 128.813 58.02 127.958 59.102 127.175 60.242 C 127.004 60.526 126.848 60.811 126.677 61.082 C 125.652 62.862 124.555 64.585 123.288 66.195 C 122.448 67.377 121.523 68.487 120.441 69.456 L 120.241 69.527 C 120.213 69.541 120.198 69.541 120.198 69.541 C 120.198 69.541 119.6 69.755 118.604 70.025 C 117.507 70.325 115.927 70.652 114.147 70.695 C 113.507 70.709 112.852 70.695 112.168 70.624 Z"
        fill="#333333"/>
    <path
        id="path_20"
        d="M 118.205 51.654 C 118.191 51.839 118.191 52.024 118.177 52.195 C 118.205 51.996 118.234 51.796 118.262 51.583 L 118.205 51.654 Z"
        fill="#333333"/>
    <path
        id="path_21"
        d="M 129.809 56.995 L 130.607 56.268 C 130.322 56.51 130.066 56.752 129.809 56.995 Z"
        fill="#333333"/>
    <path
        id="path_22"
        d="M 123.658 55.485 C 123.359 55.229 123.06 54.958 122.818 54.773 C 121.708 53.961 120.683 52.936 119.814 51.825 C 120.839 53.249 122.22 54.517 123.658 55.485 Z"
        fill="#333333"/>
    <path
        id="path_23"
        d="M 129.895 56.268 C 128.699 56.354 126.307 56.596 125.424 56.525 C 126.307 56.596 128.684 56.354 129.895 56.268 Z"
        fill="#333333"/>
    <path
        id="path_24"
        d="M 113.222 60.014 C 113.663 59.387 114.119 58.846 114.589 58.347 C 114.048 58.846 113.592 59.273 113.222 60.014 Z"
        fill="#333333"/>
    <path
        id="path_25"
        d="M 112.168 70.624 C 112.183 69.527 112.197 68.388 112.239 67.234 C 112.14 68.359 112.083 69.499 112.168 70.624 Z"
        fill="#333333"/>
    <path
        id="path_26"
        d="M 126.691 61.039 C 126.848 60.754 127.019 60.469 127.19 60.199 C 125.851 62.136 124.684 64.243 123.317 66.166 C 124.556 64.543 125.666 62.819 126.691 61.039 Z"
        fill="#333333"/>
    <path
        id="path_27"
        d="M 116.511 56.211 C 116.881 55.713 117.223 55.172 117.508 54.531 C 117.152 55.2 116.824 55.755 116.511 56.211 Z"
        fill="#333333"/>
    <path
        id="path_28"
        d="M 120.256 69.485 L 120.457 69.413 C 120.457 69.413 120.327 69.471 120.256 69.485 Z"
        fill="#333333"/>
    <path
        id="path_29"
        d="M 112.624 62.947 C 112.766 61.951 112.966 60.968 113.222 60.014 C 112.894 60.683 112.724 61.837 112.624 62.947 Z"
        fill="#333333"/>
    <path
        id="path_30"
        d="M 114.147 70.695 C 113.507 70.709 112.852 70.695 112.168 70.624 L 112.182 70.638 C 112.852 70.695 113.507 70.709 114.147 70.695 Z"
        fill="#333333"/>
    <path
        id="path_31"
        d="M 120.213 69.499 C 120.213 69.499 119.601 69.755 118.59 70.025 C 119.601 69.755 120.213 69.499 120.213 69.499 Z"
        fill="#333333"/>
    <path
        id="path_32"
        d="M 118.348 49.062 C 118.305 48.92 118.277 50.372 118.205 51.654 L 118.262 51.583 C 118.333 50.842 118.362 50.016 118.348 49.062 Z"
        fill="#333333"/>
    <path
        id="path_33"
        d="M 87.736 60.612 C 87.75 60.655 87.764 60.698 87.779 60.755 C 87.779 60.698 87.75 60.655 87.736 60.612 Z"
        fill="#333333"/>
    <path
        id="path_34"
        d="M 88.106 64.4 C 88.248 63.375 88.248 62.349 87.921 61.167 C 88.22 62.307 88.22 63.361 88.106 64.4 Z"
        fill="#333333"/>
    <path
        id="path_35"
        d="M 92.263 53.79 C 92.206 54.303 92.206 54.816 92.249 55.3 C 92.206 54.83 92.221 54.317 92.263 53.79 Z"
        fill="#333333"/>
    <path
        id="path_36"
        d="M 105.96 47.894 C 104.309 46.627 102.173 45.943 99.895 46.171 C 98.841 46.271 97.845 46.584 96.933 47.04 C 99.795 45.73 103.383 46.071 105.96 47.894 Z"
        fill="#333333"/>
    <path
        id="path_37"
        d="M 92.434 52.751 C 92.477 52.58 92.505 52.423 92.562 52.266 C 92.52 52.437 92.477 52.594 92.434 52.751 Z"
        fill="#333333"/>
    <path
        id="path_38"
        d="M 109.25 55.542 C 109.306 55.029 109.306 54.517 109.264 54.018 C 109.306 54.517 109.306 55.015 109.25 55.542 Z"
        fill="#333333"/>
    <path
        id="path_39"
        d="M 109.249 55.556 C 109.207 55.898 109.15 56.225 109.078 56.539 C 109.164 56.225 109.221 55.898 109.249 55.556 Z"
        fill="#333333"/>
    <path
        id="path_40"
        d="M 95.567 61.452 C 97.218 62.72 99.354 63.403 101.632 63.175 C 102.686 63.076 103.682 62.762 104.594 62.307 C 101.718 63.617 98.129 63.275 95.567 61.452 Z"
        fill="#333333"/>
    <path
        id="path_41"
        d="M 92.263 53.79 C 92.306 53.448 92.363 53.107 92.434 52.793 C 92.349 53.121 92.292 53.463 92.263 53.79 Z"
        fill="#333333"/>
    <path
        id="path_42"
        d="M 109.079 56.581 C 109.036 56.752 109.007 56.909 108.965 57.066 C 109.007 56.909 109.036 56.752 109.079 56.581 Z"
        fill="#333333"/>
    <path
        id="path_43"
        d="M 87.807 85.435 C 88.248 82.245 88.718 79.055 89.216 75.879 C 89.373 74.939 89.701 74.013 89.985 72.931 C 90.284 72.076 90.484 70.823 90.612 69.499 C 89.658 69.513 88.462 69.37 87.579 68.787 C 87.494 68.73 87.422 68.673 87.337 68.616 C 87.337 68.63 87.337 68.658 87.323 68.673 C 87.28 69.014 87.237 69.37 87.223 69.755 C 87.209 70.082 87.195 70.339 87.195 70.552 C 87.195 70.552 87.195 70.937 87.195 71.592 C 83.891 71.45 81.385 70.396 81.385 70.396 L 80.859 70.211 L 80.901 70.139 C 80.887 70.125 80.859 70.097 80.844 70.082 C 80.132 69.627 79.563 69.1 79.093 68.516 C 78.139 67.576 77.669 66.351 77.256 65.084 C 76.9 64.172 76.573 63.204 76.189 62.221 C 75.405 60.683 74.309 59.259 73.085 57.934 C 72.672 57.493 72.245 57.066 71.803 56.653 C 71.746 56.596 71.76 56.468 71.704 56.225 C 72.359 56.311 72.957 56.368 73.512 56.382 C 73.284 55.969 73.056 55.542 72.828 55.129 C 72.629 54.759 72.415 54.36 72.387 53.961 C 72.302 52.679 72.985 51.697 73.74 50.742 C 74.679 49.532 75.562 48.264 76.544 47.082 C 77.57 45.858 78.538 44.519 79.791 43.579 C 81.087 42.611 82.14 41.671 82.795 40.118 C 83.137 39.292 83.849 38.594 84.504 37.897 C 83.393 37.925 82.268 38.011 81.143 38.068 C 79.506 38.922 77.926 40.446 77.171 42.069 C 75.491 45.73 71.547 47.253 69.44 50.685 C 67.717 53.534 62.776 57.066 64.841 60.64 C 67.389 66.508 72.843 69.997 78.082 73.216 C 80.489 74.74 83.023 79.026 86.881 78.457 C 86.682 81.547 85.671 83.726 85.159 86.361 C 84.746 88.967 84.361 91.573 83.977 94.193 C 87.536 90.419 90.37 86.688 90.37 86.674 C 90.341 86.588 87.138 90.277 87.807 85.435 Z"
        fill="#333333"/>
    <path
        id="path_44"
        d="M 95.681 32.072 C 95.88 32.456 95.396 33.197 95.396 33.197 C 95.367 33.453 95.225 33.624 95.097 33.809 C 96.25 33.496 97.119 33.339 97.119 33.339 C 97.133 33.439 97.147 33.525 97.147 33.61 C 97.176 33.553 97.204 33.496 97.233 33.439 C 97.318 33.396 97.389 33.325 97.418 33.225 L 97.503 32.955 C 97.503 32.955 97.816 32.471 97.759 32.143 C 96.948 32.086 96.193 32.029 95.538 31.944 C 95.624 32.043 95.681 32.1 95.681 32.072 Z"
        fill="#333333"/>
    <path
        id="path_45"
        d="M 73.07 57.906 C 74.309 59.23 75.391 60.655 76.174 62.193 C 75.391 60.655 74.309 59.23 73.07 57.906 Z"
        fill="#333333"/>
    <path
        id="path_46"
        d="M 87.195 71.564 C 87.195 70.923 87.195 70.524 87.195 70.524 C 87.195 70.31 87.209 70.054 87.223 69.727 C 87.251 69.342 87.28 68.986 87.323 68.644 C 87.195 69.556 87.123 70.51 87.195 71.564 Z"
        fill="#333333"/>
    <path
        id="path_47"
        d="M 79.079 68.487 C 78.267 67.49 77.726 66.323 77.242 65.055 C 77.669 66.323 78.125 67.547 79.079 68.487 Z"
        fill="#333333"/>
    <path
        id="path_48"
        d="M 80.901 70.111 L 80.859 70.182 L 81.385 70.367 C 81.2 70.268 81.015 70.154 80.844 70.054 C 80.859 70.068 80.887 70.097 80.901 70.111 Z"
        fill="#333333"/>
    <path
        id="path_49"
        d="M 105.12 33.14 C 103.896 32.585 101.931 32.399 99.966 32.271 C 101.831 32.485 103.554 32.77 105.12 33.14 Z"
        fill="#333333"/>
    <path
        id="path_50"
        d="M 108.495 53.876 C 108.125 50.244 105.192 47.296 101.561 46.94 C 96.649 46.456 92.548 50.557 93.032 55.471 C 93.402 59.102 96.335 62.05 99.966 62.406 C 104.864 62.891 108.979 58.789 108.495 53.876 Z M 104.323 58.419 L 102.202 58.419 L 102.202 55.485 L 99.311 55.485 L 99.311 58.419 L 97.19 58.419 L 97.19 50.913 L 99.311 50.913 L 99.311 53.733 L 102.202 53.733 L 102.202 50.913 L 104.323 50.913 L 104.323 58.419 Z"
        fill="#333333"/>
    <path
        id="path_51"
        d="M 109.719 34.507 C 111.77 35.276 113.492 36.173 114.945 37.113 C 113.678 35.931 111.542 35.077 109.719 34.507 Z"
        fill="#ae1f23"/>
    <path
        id="path_52"
        d="M 106.331 34.237 C 106.53 34.678 106.9 35.048 107.185 35.447 C 107.655 36.117 108.139 36.786 108.68 37.555 C 108.851 37.854 109.007 38.11 109.15 38.324 C 109.264 38.281 109.392 38.253 109.506 38.21 C 109.605 38.181 109.677 38.11 109.734 38.039 C 110.004 37.982 110.289 37.939 110.559 37.882 C 112.168 37.555 113.749 37.413 115.301 37.498 C 115.187 37.37 115.073 37.242 114.945 37.128 C 113.492 36.188 111.77 35.291 109.719 34.521 C 107.897 33.966 106.402 33.695 106.402 33.695 C 106.373 33.881 106.345 34.066 106.331 34.237 Z"
        fill="#ae1f23"/>
    <path
        id="path_53"
        d="M 102.33 41.272 C 102.486 41.372 102.643 41.457 102.814 41.542 C 102.828 41.542 102.828 41.557 102.842 41.557 C 102.671 41.457 102.501 41.372 102.33 41.272 Z"
        fill="#ae1f23"/>
    <path
        id="path_54"
        d="M 102.814 41.528 C 102.643 41.443 102.486 41.357 102.33 41.258 C 102.33 41.272 102.515 41.443 102.814 41.528 Z"
        fill="#ae1f23"/>
    <path
        id="path_55"
        d="M 110.559 37.882 C 110.289 37.939 110.004 37.996 109.733 38.039 C 109.677 38.124 109.605 38.181 109.506 38.21 C 109.392 38.238 109.264 38.281 109.15 38.324 C 109.007 38.11 108.865 37.854 108.68 37.555 C 108.139 36.786 107.655 36.116 107.185 35.447 C 106.9 35.048 106.53 34.678 106.331 34.237 C 106.017 36.686 105.619 38.352 105.177 39.463 C 104.636 40.959 104.052 41.514 103.426 41.557 C 103.212 41.599 103.013 41.585 102.856 41.542 C 103.141 41.685 103.44 41.813 103.753 41.913 C 103.81 41.927 103.867 41.956 103.924 41.97 C 103.953 41.984 103.995 41.998 104.024 41.998 C 106.003 42.639 108.409 42.724 110.531 42.397 C 112.994 41.998 115.073 41.044 115.756 39.848 C 115.785 39.791 115.813 39.734 115.842 39.677 C 115.842 39.663 115.856 39.648 115.856 39.634 C 116.098 38.993 115.97 38.267 115.315 37.484 C 113.763 37.412 112.168 37.555 110.559 37.882 Z"
        fill="#ae1f23"/>
    <path
        id="path_56"
        d="M 115.828 39.691 C 115.799 39.748 115.771 39.806 115.742 39.863 C 115.771 39.806 115.799 39.748 115.828 39.691 Z"
        fill="#ae1f23"/>
    <path
        id="path_57"
        d="M 103.912 41.984 C 103.854 41.97 103.797 41.941 103.739 41.927 C 103.797 41.941 103.854 41.97 103.912 41.984 Z"
        fill="#ae1f23"/>
    <path
        id="path_58"
        d="M 105.163 39.463 C 104.579 40.944 103.939 41.457 103.412 41.557 C 104.053 41.514 104.636 40.959 105.163 39.463 Z"
        fill="#ae1f23"/>
    <path
        id="path_59"
        d="M 115.842 39.648 C 116.013 39.25 116.027 38.837 115.87 38.409 C 115.742 38.082 115.557 37.783 115.301 37.498 C 115.956 38.267 116.084 38.993 115.842 39.648 Z"
        fill="#ae1f23"/>
    <path
        id="path_60"
        d="M 104.01 42.013 C 106.046 42.682 108.424 42.753 110.517 42.411 C 108.395 42.739 105.989 42.653 104.01 42.013 Z"
        fill="#ae1f23"/>
    <path
        id="path_61"
        d="M 89.701 36.729 C 88.704 36.7 87.707 36.772 86.71 36.829 C 86.312 37.156 85.97 37.498 85.728 37.882 C 86.255 37.897 86.767 37.925 87.294 37.982 C 88.86 38.167 90.412 38.395 91.979 38.637 C 92.406 38.253 92.719 37.968 92.719 37.968 C 92.79 37.783 92.918 37.541 93.089 37.213 C 93.644 36.117 94.442 35.12 94.969 34.023 C 94.969 33.966 94.954 33.909 94.954 33.852 C 93.089 34.379 90.612 35.319 89.701 36.729 Z"
        fill="#ae1f23"/>
    <path
        id="path_62"
        d="M 94.94 33.866 C 94.94 33.809 94.926 33.752 94.926 33.695 C 94.926 33.695 89.387 34.664 86.71 36.829 C 87.707 36.772 88.704 36.7 89.701 36.729 C 90.612 35.319 93.089 34.379 94.94 33.866 Z"
        fill="#ae1f23"/>
    <path
        id="path_63"
        d="M 98.514 41.528 C 98.671 41.443 98.841 41.357 98.998 41.272 C 98.827 41.372 98.656 41.457 98.485 41.542 C 98.485 41.542 98.5 41.528 98.514 41.528 Z"
        fill="#ae1f23"/>
    <path
        id="path_64"
        d="M 98.984 41.272 C 98.827 41.357 98.671 41.457 98.5 41.528 C 98.799 41.443 98.984 41.272 98.984 41.272 Z"
        fill="#ae1f23"/>
    <path
        id="path_65"
        d="M 93.075 37.213 C 92.904 37.541 92.776 37.783 92.705 37.968 C 92.705 37.968 92.391 38.253 91.964 38.637 C 90.412 38.395 88.846 38.167 87.28 37.982 C 86.767 37.925 86.24 37.882 85.714 37.882 C 85.258 38.594 85.244 39.25 85.557 39.848 C 86.198 40.987 88.106 41.913 90.412 42.354 C 90.484 42.368 90.555 42.383 90.64 42.397 C 90.669 42.397 90.683 42.411 90.711 42.411 C 92.69 42.724 94.912 42.682 96.82 42.169 C 96.834 42.169 96.848 42.155 96.862 42.155 C 96.919 42.141 96.976 42.112 97.033 42.098 C 97.531 41.941 98.016 41.77 98.471 41.542 C 98.3 41.585 98.101 41.614 97.887 41.557 C 97.247 41.5 96.663 40.93 96.122 39.392 C 95.68 38.253 95.267 36.544 94.969 34.023 C 94.427 35.134 93.644 36.131 93.075 37.213 Z"
        fill="#ae1f23"/>
    <path
        id="path_66"
        d="M 97.887 41.571 C 97.361 41.457 96.706 40.93 96.122 39.406 C 96.663 40.944 97.247 41.514 97.887 41.571 Z"
        fill="#ae1f23"/>
    <path
        id="path_67"
        d="M 90.726 42.411 C 92.676 42.739 94.869 42.71 96.82 42.169 C 94.912 42.682 92.691 42.724 90.726 42.411 Z"
        fill="#ae1f23"/>
    <path
        id="path_68"
        d="M 90.655 42.397 C 90.584 42.383 90.512 42.369 90.427 42.354 C 90.498 42.369 90.57 42.383 90.655 42.397 Z"
        fill="#ae1f23"/>
    <path
        id="path_69"
        d="M 85.728 37.882 C 85.614 38.053 85.529 38.224 85.457 38.409 C 85.258 38.908 85.315 39.392 85.571 39.848 C 85.258 39.25 85.258 38.594 85.728 37.882 Z"
        fill="#ae1f23"/>
    <path
        id="path_70"
        d="M 97.049 42.098 C 96.991 42.112 96.934 42.141 96.876 42.155 C 96.919 42.141 96.977 42.112 97.049 42.098 Z"
        fill="#ae1f23"/>
    <path
        id="path_71"
        d="M 99.112 109.788 C 91.979 109.788 85.045 108.435 78.481 105.772 L 81.4 98.566 C 87.024 100.844 92.975 102.012 99.098 102.012 C 125.068 102.012 146.198 80.877 146.198 54.901 C 146.198 28.924 125.082 7.776 99.112 7.776 C 73.141 7.776 52.012 28.91 52.012 54.887 L 44.238 54.887 C 44.224 24.624 68.842 0 99.112 0 C 129.368 0 154 24.624 154 54.901 C 154 85.178 129.368 109.788 99.112 109.788 Z"
        fill="#333333"/>
    <path
        id="path_72"
        d="M 140.901 28.298 L 123.659 28.298 C 122.534 28.298 121.608 27.386 121.608 26.247 C 121.608 25.108 122.52 24.211 123.659 24.211 L 140.915 24.211 C 142.04 24.211 142.966 25.122 142.966 26.261 C 142.966 27.401 142.04 28.298 140.901 28.298 Z"
        fill="#333333"/>
    <path
        id="path_73"
        d="M 144.46 38.295 L 133.17 38.295 C 132.045 38.295 131.119 37.384 131.119 36.245 C 131.119 35.105 132.031 34.194 133.17 34.194 L 144.46 34.194 C 145.585 34.194 146.511 35.105 146.511 36.245 C 146.511 37.384 145.585 38.295 144.46 38.295 Z"
        fill="#333333"/>
    <path
        id="path_74"
        d="M 148.219 48.293 L 140.46 48.293 C 139.335 48.293 138.409 47.382 138.409 46.242 C 138.409 45.117 139.321 44.191 140.46 44.191 L 148.219 44.191 C 149.344 44.191 150.27 45.103 150.27 46.242 C 150.27 47.382 149.344 48.293 148.219 48.293 Z"
        fill="#333333"/>
    <path
        id="path_75"
        d="M 148.575 73.614 L 132.671 73.614 C 131.546 73.614 130.621 72.703 130.621 71.564 C 130.621 70.439 131.532 69.513 132.671 69.513 L 148.575 69.513 C 149.7 69.513 150.625 70.424 150.625 71.564 C 150.625 72.703 149.7 73.614 148.575 73.614 Z"
        fill="#333333"/>
    <path
        id="path_76"
        d="M 144.076 83.071 L 121.893 83.071 C 120.768 83.071 119.843 82.159 119.843 81.02 C 119.843 79.895 120.754 78.969 121.893 78.969 L 144.076 78.969 C 145.201 78.969 146.126 79.881 146.126 81.02 C 146.126 82.159 145.201 83.071 144.076 83.071 Z"
        fill="#333333"/>
</svg>
